{
  "Version": "2012-10-17",
  "Statement": [
    {
      "Sid": "CustomPolicies",
      "Effect": "Allow",
      "Action": [
        "s3:PutObject",
        "s3:GetObject",
        "s3:ListBucket",
        "s3:PutBucketAcl"
      ],
      "Resource": [
        "arn:aws:s3:::ngnr-deploy-cfn/*",
        "arn:aws:s3:::ngnr-deploy-cfn",
        "arn:aws:s3:::ngnr-data-prod/*",
        "arn:aws:s3:::ngnr-data-prod",
        "arn:aws:s3:::ngnr-data-staging/*",
        "arn:aws:s3:::ngnr-data-staging"
      ]
    },
    {
      "Sid": "Stmt1684167790631",
      "Action": ["apigateway:*"],
      "Effect": "Allow",
      "Resource": "*"
    },
    {
      "Sid": "Stmt1683816552645",
      "Action": [
        "cloudformation:CreateChangeSet",
        "cloudformation:CreateStack",
        "cloudformation:CreateStackSet",
        "cloudformation:DeleteChangeSet",
        "cloudformation:DeleteStack",
        "cloudformation:DeleteStackSet",
        "cloudformation:DescribeChangeSet",
        "cloudformation:DescribeStackDriftDetectionStatus",
        "cloudformation:DescribeStackEvents",
        "cloudformation:DescribeStackResourceDrifts",
        "cloudformation:DescribeStackSet",
        "cloudformation:DescribeStacks",
        "cloudformation:DetectStackDrift",
        "cloudformation:DetectStackResourceDrift",
        "cloudformation:DetectStackSetDrift",
        "cloudformation:ExecuteChangeSet",
        "cloudformation:RollbackStack",
        "cloudformation:UpdateStack",
        "cloudformation:UpdateStackSet",
        "cloudformation:ValidateTemplate",
        "cloudformation:GetTemplateSummary"
      ],
      "Effect": "Allow",
      "Resource": [
        "arn:aws:cloudformation:us-east-1:610469147186:stack/ngnr-staging-test/6c7877d0-08f8-11ee-b0fc-0e4bc29eaad5",
        "arn:aws:cloudformation:us-east-1:610469147186:stack/ngnr-club-prod/4d6a2630-092b-11ee-a2ee-124b5a33cea1"
      ]
    },
    {
      "Action": [
        "cognito-idp:CreateUserPool",
        "cognito-idp:CreateUserPoolClient",
        "cognito-idp:DeleteUserPool",
        "cognito-idp:DeleteUserPoolClient",
        "cognito-idp:UpdateUserPool",
        "cognito-idp:UpdateUserPoolClient",
        "cognito-idp:ListTagsForResource",
        "cognito-idp:*"
      ],
      "Effect": "Allow",
      "Resource": "*"
    },
    {
      "Effect": "Allow",
      "Action": ["iam:*"],
      "Resource": [
        "arn:aws:iam::610469147186:role/ngnr-staging-logs-role",
        "arn:aws:iam::610469147186:role/ngnr-staging-execution-role",
        "arn:aws:iam::610469147186:role/ngnr-prod-logs-role",
        "arn:aws:iam::610469147186:role/ngnr-prod-execution-role"
      ]
    },
    {
      "Sid": "Stmt1686582641436",
      "Action": "s3:*",
      "Effect": "Allow",
      "Resource": "*"
    },
    {
      "Sid": "Stmt1686582735391",
      "Action": "logs:*",
      "Effect": "Allow",
      "Resource": "*"
    },
    {
      "Effect": "Allow",
      "Action": ["lambda:*"],
      "Resource": [
        "arn:aws:lambda:us-east-1:610469147186:function:ngnr-club-staging",
        "arn:aws:lambda:us-east-1:610469147186:function:ngnr-club-prod"
      ]
    },
    {
      "Sid": "Stmt1683818428705",
      "Action": ["dynamodb:*"],
      "Effect": "Allow",
      "Resource": [
        "arn:aws:dynamodb:us-east-1:610469147186:table/ngnr-club-staging",
        "arn:aws:dynamodb:us-east-1:610469147186:table/ngnr-club-prod"
      ]
    },
    {
      "Sid": "Stmt1687101519648",
      "Action": "cloudfront:*",
      "Effect": "Allow",
      "Resource": "arn:aws:cloudfront::610469147186:distribution/EW5SM8MRD7BAX"
    }
  ]
}
